%YAML 1.1
%TAG !u! tag:unity3d.com,2011:
--- !u!1 &756267160958848201
GameObject:
  m_ObjectHideFlags: 0
  m_CorrespondingSourceObject: {fileID: 0}
  m_PrefabInstance: {fileID: 0}
  m_PrefabAsset: {fileID: 0}
  serializedVersion: 6
  m_Component:
  - component: {fileID: 8790969198260006774}
  m_Layer: 0
  m_Name: Model_ghost
  m_TagString: Untagged
  m_Icon: {fileID: 0}
  m_NavMeshLayer: 0
  m_StaticEditorFlags: 0
  m_IsActive: 1
--- !u!4 &8790969198260006774
Transform:
  m_ObjectHideFlags: 0
  m_CorrespondingSourceObject: {fileID: 0}
  m_PrefabInstance: {fileID: 0}
  m_PrefabAsset: {fileID: 0}
  m_GameObject: {fileID: 756267160958848201}
  m_LocalRotation: {x: 0, y: 0, z: 0, w: 1}
  m_LocalPosition: {x: 0, y: 0, z: 0}
  m_LocalScale: {x: 1, y: 1, z: 1}
  m_Children:
  - {fileID: 8880807803834034712}
  m_Father: {fileID: 0}
  m_RootOrder: 0
  m_LocalEulerAnglesHint: {x: 0, y: 0, z: 0}
--- !u!1001 &1559943523610050601
PrefabInstance:
  m_ObjectHideFlags: 0
  serializedVersion: 2
  m_Modification:
    m_TransformParent: {fileID: 8790969198260006774}
    m_Modifications:
    - target: {fileID: 7969400996423641649, guid: a20459c190de3c54aab7653d91b72644,
        type: 3}
      propertyPath: m_LocalPosition.x
      value: 0
      objectReference: {fileID: 0}
    - target: {fileID: 7969400996423641649, guid: a20459c190de3c54aab7653d91b72644,
        type: 3}
      propertyPath: m_LocalPosition.y
      value: 0
      objectReference: {fileID: 0}
    - target: {fileID: 7969400996423641649, guid: a20459c190de3c54aab7653d91b72644,
        type: 3}
      propertyPath: m_LocalPosition.z
      value: 0
      objectReference: {fileID: 0}
    - target: {fileID: 7969400996423641649, guid: a20459c190de3c54aab7653d91b72644,
        type: 3}
      propertyPath: m_LocalRotation.x
      value: -0
      objectReference: {fileID: 0}
    - target: {fileID: 7969400996423641649, guid: a20459c190de3c54aab7653d91b72644,
        type: 3}
      propertyPath: m_LocalRotation.y
      value: -0
      objectReference: {fileID: 0}
    - target: {fileID: 7969400996423641649, guid: a20459c190de3c54aab7653d91b72644,
        type: 3}
      propertyPath: m_LocalRotation.z
      value: -0
      objectReference: {fileID: 0}
    - target: {fileID: 7969400996423641649, guid: a20459c190de3c54aab7653d91b72644,
        type: 3}
      propertyPath: m_LocalRotation.w
      value: 1
      objectReference: {fileID: 0}
    - target: {fileID: 7969400996423641649, guid: a20459c190de3c54aab7653d91b72644,
        type: 3}
      propertyPath: m_RootOrder
      value: 0
      objectReference: {fileID: 0}
    - target: {fileID: 7969400996423641649, guid: a20459c190de3c54aab7653d91b72644,
        type: 3}
      propertyPath: m_LocalEulerAnglesHint.x
      value: 0
      objectReference: {fileID: 0}
    - target: {fileID: 7969400996423641649, guid: a20459c190de3c54aab7653d91b72644,
        type: 3}
      propertyPath: m_LocalEulerAnglesHint.y
      value: 0
      objectReference: {fileID: 0}
    - target: {fileID: 7969400996423641649, guid: a20459c190de3c54aab7653d91b72644,
        type: 3}
      propertyPath: m_LocalEulerAnglesHint.z
      value: 0
      objectReference: {fileID: 0}
    - target: {fileID: 7969400996423641679, guid: a20459c190de3c54aab7653d91b72644,
        type: 3}
      propertyPath: m_Name
      value: ItemPop_ghost
      objectReference: {fileID: 0}
    m_RemovedComponents: []
  m_SourcePrefab: {fileID: 100100000, guid: a20459c190de3c54aab7653d91b72644, type: 3}
--- !u!4 &8880807803834034712 stripped
Transform:
  m_CorrespondingSourceObject: {fileID: 7969400996423641649, guid: a20459c190de3c54aab7653d91b72644,
    type: 3}
  m_PrefabInstance: {fileID: 1559943523610050601}
  m_PrefabAsset: {fileID: 0}
